Exploratory Data Analysis Project
…
Using filter() and mutate(), a new categorical variable was made called Positive_cat, which categorizes the positive rates into high, med, and low. A table for the same six summary statistics grouped by the Positive_cat variable is then created using group_by(), select(), and summarize(). Tidying is then done to reshape the table, pivot_longer(), separate(), pivot_wider(), and arragne() are used much like in the previous overall table to organize the data. This table shows the mean, median, sd, variance, min and max statistics of each numeric variable for the high, med, and low groups. A correlation matrix is then created for all of the numeric variables in the data. There are high correlations between deaths and infected, tested and infected, tested and medicaid enrollment, medicaid enrollment and population, medicaid enrollment and medicare enorollment, and medicare enorllment and population.

4. Visualizing

tidycor <- cordat %>% as.data.frame %>% rownames_to_column("var1") %>% 
    pivot_longer(-1, names_to = "var2", values_to = "correlation")
tidycor

## # A tibble: 121 x 3
##    var1   var2                correlation
##    <chr>  <chr>                     <dbl>
##  1 Tested Tested                 1       
##  2 Tested Infected               0.824   
##  3 Tested Deaths                 0.754   
##  4 Tested Population             0.759   
##  5 Tested Income                 0.345   
##  6 Tested GDP                    0.0887  
##  7 Tested Unemployment           0.000609
##  8 Tested Percent Uninsured      0.00539 
##  9 Tested Medicaid Enrollment    0.828   
## 10 Tested Medicare Enrollment    0.781   
## # … with 111 more rows
…
