Project 2: Modeling, Testing, and Predicting
…
2. Randomization Test

Perform some kind of randomization test on your data (that makes sense). The statistic can be anything you want (mean difference, correlation, F-statistic/ANOVA, chi-squared), etc. State null and alternative hypotheses, perform the test, and interpret the results (7). Create a plot visualizing the null distribution and the test statistic (3).

medcost2 <- medicalcost %>% select(sex, charges)
medcost2

## # A tibble: 1,338 x 2
##    sex    charges
##    <chr>    <dbl>
##  1 female  16885.
##  2 male     1726.
##  3 male     4449.
##  4 male    21984.
##  5 male     3867.
##  6 female   3757.
##  7 female   8241.
##  8 female   7282.
##  9 male     6406.
## 10 female  28923.
## # … with 1,328 more rows
…
